{
  "category": [
    "Biraz kendinizden bahseder misiniz? / Tell me a little bit about yourself.",
    "Yemek / Food",
    "Etkinlikler / Activities",
    "Dilek Kutusu / Wishbox"
  ],
  "placeType": [
    "Select Answer",
    "Cafe / Restaurant",
    "School",
    "Theater"
  ],
  "firstCategory": "Biraz kendinizden bahseder misiniz? / Tell me a little bit about yourself.",
  "questions": [
    {
      "id": "900",
      "text": "TEST",
      "type": "dropdown",
      "answers": [
        "follow up question",
        "follow up question 2",
        "no follow up"
      ],
      "category": "Biraz kendinizden bahseder misiniz? / Tell me a little bit about yourself.",
      "followUp":
        {
          "requiredAnswers": [
            "follow up question",
            "follow up question 2",
            ""
          ],
          "id": "901",
          "text": "THIS IS THE FOLLOW UP QUESTION!!!!!!!!!",
          "type": "dropdown",
          "answers": [
            "fdasfdsafdafadas",
            "fdasjfadslfjasklfjkaldsljka22222"
          ],
          "category": "Biraz kendinizden bahseder misiniz? / Tell me a little bit about yourself.",
          "followUp":
            {
              "requiredAnswers": [
                "fdasfdsafdafadas"
              ],
              "id": "901",
              "text": "66666666666666666666666666321321!!",
              "type": "dropdown",
              "answers": [
                "fdasfdsafdafad22222222222222222as",
                "fdasjfadslfjasklfjkaldsljka22222222222222222"
              ],
              "category": "Biraz kendinizden bahseder misiniz? / Tell me a little bit about yourself."              
            }
        }
    },
    {
      "id": "1000",
      "text": "Nerede yaşıyorsunuz? \r\n     Where do you live?",
      "type": "mapPoint",
      "answers": [
        ""
      ],
      "category": "Biraz kendinizden bahseder misiniz? / Tell me a little bit about yourself."
    },
    {
      "id": "1001",
      "text": "Gündüz saatlerini genelde nerede geçiriyorsunuz? \r\n      Where do you mostly spend your days?",
      "type": "dropdown",
      "answers": [
        "Ev / Home",
        "İş / Work",
        "Okul / School",
        "Diğer / Other"
      ],
      "category": "Biraz kendinizden bahseder misiniz? / Tell me a little bit about yourself."
    },
    {
      "id": "1002",
      "text": "Nerede? / Where?",
      "type": "mapPoint",
      "answers": [
        ""
      ],
      "category": "Biraz kendinizden bahseder misiniz? / Tell me a little bit about yourself."
    },
    {
      "id": "1003",
      "text": "Sizin için İstanbul’u İstanbul yapan bir yer neresi? / What is the one place that makes Istanbul Istanbul for you?",
      "type": "mapPoint",
      "answers": [
        ""
      ],
      "category": "Biraz kendinizden bahseder misiniz? / Tell me a little bit about yourself."
    },
    {
      "id": "1004",
      "text": "Kaybolduğu için nostalji duyduğunuz bir yer/bina var mı? / Is there a place/building) that Istanbul lost and you feel nostalgic about?",
      "type": "mapPoint",
      "answers": [
        ""
      ],
      "category": "Biraz kendinizden bahseder misiniz? / Tell me a little bit about yourself."
    },
    {
      "id": "2000",
      "text": "Bugün veya dün yediğiniz hangi yemekten konuşalım? / Tell us about a meal you had today or yesterday.",
      "type": "dropdown",
      "answers": [
        "Kahvaltı / Breakfast",
        "Öğle yemeği / Lunch",
        "Akşam yemeği / Dinner",
        "Atıştırma / Snacks",
        "İçki, çay, kahve / Drinks",
        "Gece yemeği / Late night food"
      ],
      "category": "Yemek / Food"
    },
    {
      "id": "2001",
      "text": "Nerede yediniz? / Where did you eat",
      "type": "map",
      "answers": [
        ""
      ],
      "category": "Yemek / Food"
    },
    {
      "id": "2002",
      "text": "Oraya nasıl gittiniz? / How did you get there?",
      "type": "dropdown",
      "answers": [
        "Yürüdüm / Walk",
        "Otobüs / Bus",
        "Vapur / Ferry",
        "Dolmuş / Jitney",
        "Metrobüs / Metrobus",
        "Metro / Subway",
        "Taksi/Uber/Kareem   / Taxi/Uber/Kareem",
        "Arabamla / Driving",
        "Scotty"
      ],
      "category": "Yemek / Food"
    },
    {
      "id": "2003",
      "text": "Ne yediniz? / What did you eat?",
      "type": "dropdown",
      "answers": [
        "Pizza, İtalyan Mutfağı / Pizza, Italian",
        "Fast food",
        "Izgara, Kebap, Pide / Grill, Kebap, Pide",
        "Uzakdoğu / Asian",
        "Deniz Ürünleri / Seafood",
        "Vejetaryen, vegan / Vegetarian, vegan",
        "Ev Yemegi / Home style",
        "Tatlı / Dessert",
        "Kahvaltılık / Breakfast",
        "Atıştırmalık / Snacks",
        "Başka birşey / Other"
      ],
      "category": "Yemek / Food"
    },
    {
      "id": "2004",
      "text": "Kiminleydiniz? / Who will you go with?",
      "type": "dropdown",
      "answers": [
        "Aile / Family",
        "Yalnız / Alone",
        "Yeni tanıştığım biri / Date",
        "Eş, partner, sevgili / Significant other",
        "Arkadaş(lar) / Friend(s)",
        "İş arkadaşları / Coworker(s)"
      ],
      "category": "Yemek / Food"
    },
    {
      "id": "2005",
      "text": "Yemekte çoğunlukla ne konuştunuz? / What did you talk about mostly?",
      "type": "dropdown",
      "answers": [
        "Politika / Politics",
        "Aile meseleleri / Family Issues",
        "Aşk hayatı / Love ",
        "İş / Work",
        "Spor / Sports",
        "Seyahat / Travel",
        "Havadan sudan / Small talk",
        "Yemek / Food",
        "Dedikodu / Gossip",
        "Hayat / Life",
        "Tatil / Vacation"
      ],
      "category": "Yemek / Food"
    },
    {
      "id": "2006",
      "text": "Daha sonra ne yaptınız? / What did you do after?",
      "type": "dropdown",
      "answers": [
        "Eve gittim / Go home",
        "Alışverişe çıktım / Go shopping",
        "İşe döndüm / Go to work",
        "Arkadaşlarla buluştum / Meet friends",
        "Kültürel etkinlikler (konser, sinema, sergi, vs.)  / Cultural activity",
        "Bir yerde birşeyler içtim / Go for drinks",
        "Çay, kahve içtim / Go for coffee/tea and dessert "
      ],
      "category": "Yemek / Food"
    },
    {
      "id": "2007",
      "text": "Nerede? / Where?",
      "type": "map",
      "answers": [
        ""
      ],
      "category": "Yemek / Food"
    },
    {
      "id": "2008",
      "text": "Oraya nasıl gittiniz? / How did you get there?",
      "type": "dropdown",
      "answers": [
        "Yürüdüm / Walk",
        "Otobüs / Bus",
        "Vapur / Ferry",
        "Dolmuş / Jitney",
        "Metrobüs / Metrobus",
        "Metro / Subway",
        "Taksi/Uber/Kareem   / Taxi/Uber/Kareem",
        "Arabamla / Driving",
        "Scotty"
      ],
      "category": "Yemek / Food"
    },
    {
      "id": "3000",
      "text": "Yakınlarda yaptığınız bir etkinlikten bahsedelim. / Tell us about a recent activity.",
      "type": "dropdown",
      "answers": [
        "Sinema / Movies",
        "Konser / Concert",
        "Tiyatro, opera, bale / Theater,  opera, bale",
        "Dans / Dancing",
        "Sergi, müze / Exhibition, museum",
        "Spor karşılaşması /Sports",
        "Tarihi, turistik gezi / Sightseeing"
      ],
      "category": "Etkinlikler / Activities"
    },
    {
      "id": "3001",
      "text": "İzlediğiniz tam olarak neydi? (film, konser tiyatro vb. adı) / What exactly did you see (name of movie, concert, play etc?)",
      "type": "input",
      "answers": [],
      "category": "Etkinlikler / Activities"
    },
    {
      "id": "3002",
      "text": "Nerede izlemiştiniz?  / Where did you see it?",
      "type": "map",
      "answers": [
        ""
      ],
      "category": "Etkinlikler / Activities"
    },
    {
      "id": "3003",
      "text": "Oraya nasıl gittiniz? / How did you get there?",
      "type": "dropdown",
      "answers": [
        "Yürüdüm / Walk",
        "Otobüs / Bus",
        "Vapur / Ferry",
        "Dolmuş / Jitney",
        "Metrobüs / Metrobus",
        "Metro / Subway",
        "Taksi-Uber-Kareem   / Tax-Uber-Kareem",
        "Arabamla / Driving",
        "Scotty"
      ],
      "category": "Etkinlikler / Activities"
    },
    {
      "id": "3004",
      "text": "Kiminleydiniz? / Who will you go with?",
      "type": "dropdown",
      "answers": [
        "Aile / Family",
        "Yalnız / Alone",
        "Yeni tanıştığım biri / Date",
        "Eş, partner, sevgili / Significiant other",
        "Arkadaş(lar) / Friend(s)",
        "İş arkadaşları / Coworker(s)"
      ],
      "category": "Etkinlikler / Activities"
    },
    {
      "id": "3005",
      "text": "Çoğunlukla ne konuştunuz? / What did you talk about mostly?",
      "type": "dropdown",
      "answers": [
        "Politika / Politics",
        "Aile meseleleri / Family Issues",
        "Aşk hayatı / Love ",
        "İş / Work",
        "Spor / Sports",
        "Seyahat / Travel",
        "Havadan sudan / Small talk",
        "Yemek / Food",
        "Dedikodu / Gossip",
        "Hayat / Life",
        "Tatil / Vacation"
      ],
      "category": "Etkinlikler / Activities"
    },
    {
      "id": "3006",
      "text": "Daha sonra ne yaptınız? / What did you do after?",
      "type": "dropdown",
      "answers": [
        "Eve gittim / Go home",
        "Alışverişe çıktım / Go shopping",
        "İşe döndüm / Go to work",
        "Arkadaşlarla buluştum / Meet friends",
        "Kültürel etkinlikler (konser, sinema, sergi, vs.)  / Cultural activity",
        "Bir yerde birşeyler içtim / Go for drinks",
        "Çay, kahve içtim / Go for coffee/tea and dessert "
      ],
      "category": "Etkinlikler / Activities"
    },
    {
      "id": "3007",
      "text": "Nerede? / Where?",
      "type": "map",
      "answers": [
        ""
      ],
      "category": "Etkinlikler / Activities"
    },
    {
      "id": "3008",
      "text": "Oraya nasil gittiniz? / How did you get there?",
      "type": "dropdown",
      "answers": [
        "Yürüdüm / Walk",
        "Otobüs / Bus",
        "Vapur / Ferry",
        "Dolmuş / Jitney",
        "Metrobüs / Metrobus",
        "Metro / Subway",
        "Taksi/Uber/Kareem   / Taxi/Uber/Kareem",
        "Arabamla / Driving",
        "Scotty"
      ],
      "category": "Etkinlikler / Activities"
    },
    {
      "id": "4000",
      "text": "Istanbul ile ilgili bir dileğiniz nedir? / Please make a wish related to Istanbul.",
      "type": "input",
      "answers": [],
      "category": "Dilek Kutusu / Wishbox"
    }
  ]
}

